<svg width="1440" height="563" viewBox="0 0 1440 563" fill="none" xmlns="http://www.w3.org/2000/svg">
<mask id="mask0_9554_157995" style="mask-type:alpha" maskUnits="userSpaceOnUse" x="-1" y="0" width="1441" height="563">
<rect x="-1" width="1441" height="563" fill="#C4C4C4"/>
</mask>
<g mask="url(#mask0_9554_157995)">
<path opacity="0.2" d="M1382.09 -38.1744C1399.1 -48.1528 1418.16 -54.5633 1438 -56.9746V-3.7134C1437.39 -3.18783 1436.7 -2.75333 1435.95 -2.42493C1421.88 4.83384 1409.64 14.8328 1398.37 25.4851C1382.63 41.0188 1368.99 58.2584 1354.14 74.4818C1340.85 89.1343 1325.37 101.858 1308.18 112.246C1301.67 116.337 1294.86 119.975 1287.79 123.134C1287.07 123.424 1286.38 123.733 1285.71 124.059C1282.57 125.293 1279.41 126.491 1276.23 127.689C1275.25 128.015 1274.31 128.324 1273.34 128.669L1271.27 129.14C1260.46 132.292 1249.19 133.81 1237.88 133.641C1216.49 134.203 1195.45 129.667 1174.79 124.894C1151.66 119.45 1128.51 113.461 1104.67 111.61C1091.86 110.667 1078.71 111.139 1066.38 115.095C1051.81 120.137 1039.12 129.114 1029.87 140.918C1016.73 157.25 1009.19 176.867 1003.91 196.574C996.649 223.795 993.566 251.705 987.535 279.107C983.361 297.871 977.961 316.725 967.737 333.42C959.676 346.613 947.805 358.155 932.833 364.125C919.181 369.805 903.883 370.458 889.255 368.97C863.56 365.74 839.474 355.487 817.015 343.8C771.924 320.209 731.659 289.559 688.158 263.609C670.062 252.908 651.143 243.512 631.56 235.5C615.42 228.84 598.647 223.65 582.66 216.645C568.304 210.27 555.284 201.485 544.232 190.713C532.744 179.952 523.382 167.394 513.33 155.453C509.045 150.229 504.285 145.371 499.104 140.936C491.828 134.766 483.786 129.54 476.74 123.079C461.844 110.086 449.935 94.4615 436.781 80.0166C420.315 61.9785 400.517 46.1544 377.235 36.6999C350.276 25.6121 320.197 22.7086 291.075 25.0132C251.92 28.1345 213.933 38.7505 177.114 51.3444C142.118 63.7413 107.848 77.9041 74.4497 93.772C50.9376 104.37 27.5019 115.821 1.99854 121.464V98.9801C18.1583 96.5666 33.6479 91.304 48.7929 85.5695C71.4434 76.8772 93.5388 66.8964 116.017 57.8047C162.486 38.9864 209.835 21.5109 259.349 11.0582C298.542 2.98285 339.248 -0.428818 379.111 5.23302C404.806 8.71724 430.156 16.1212 452.271 29.2959C469.311 39.2585 483.729 52.5421 498.816 64.9002C505.785 70.3772 512.342 76.3075 518.442 82.6479C524.231 89.634 528.895 97.3944 532.285 105.676C539.637 122.39 545.151 139.865 554.169 155.889C561.093 168.881 570.936 180.278 583.004 189.279C595.335 198.353 610.116 203.67 624.706 208.497C644.172 214.657 663.281 221.786 681.954 229.856C716.208 244.773 747.359 265.043 779.813 283.063C802.234 295.493 825.229 307.47 850.119 314.91C866.088 319.538 883.262 322.333 899.901 318.885C913.418 316.15 925.512 309.049 934.116 298.796C944.206 287.001 950.103 272.628 954.794 258.274C965.88 222.778 970.667 185.577 985.276 151.062C994.026 130.102 1006.87 109.995 1026.02 96.1492C1037.55 87.6503 1051.14 82.0341 1065.56 79.817C1080.74 77.349 1096.19 78.5648 1111.51 78.9822C1127.82 79.5992 1144.06 80.942 1160.41 81.7768C1181.47 83.0471 1203.09 83.3011 1223.71 78.1474C1239.4 74.0825 1254.1 67.1405 1266.98 57.714C1283.6 45.9911 1298.09 31.8727 1313.45 18.7525C1335.45 -1.06394 1355.92 -23.0217 1382.09 -38.1744Z" fill="#DBCAEB"/>
<path opacity="0.2" d="M258.013 46.6861C276.97 43.616 296.348 41.763 315.515 43.9612C333.328 45.8282 350.535 51.1924 366.04 59.7114C378.147 66.6323 388.989 75.3686 398.145 85.5802C421.797 110.722 434.715 143.131 458.579 168.128C468.373 178.682 480.353 187.093 492.447 195.123C508.663 205.877 524.878 216.741 542.282 225.824C557.72 233.588 573.638 240.462 589.951 246.406C606.508 252.552 622.663 259.632 638.329 267.606C652.96 275.254 667.139 283.653 680.803 292.767C710.091 312.114 738.305 332.932 767.593 352.225C791.341 367.812 815.798 382.672 842.134 394.007C865.997 404.181 891.968 411.738 918.381 410.194C939.933 409.097 960.288 400.454 975.499 385.942C987.958 374.152 996.813 359.383 1003.41 344.014C1011.4 325.212 1016.11 305.32 1020.01 285.446C1024.07 264.809 1027 243.936 1032.87 223.68C1037.27 208.53 1043.48 193.561 1053.47 180.88C1061.71 170.399 1072.81 161.57 1086.06 157.264C1096.87 153.631 1108.61 153.631 1119.85 155.193C1130.96 156.872 1141.87 159.579 1152.43 163.277C1173 170.162 1193.01 178.501 1213.77 185.077C1232.42 191.072 1251.6 195.977 1271.27 197.793C1293.18 200.029 1315.34 198.064 1336.44 192.016C1337.41 191.726 1338.4 191.453 1339.43 191.199C1343.59 189.8 1347.74 188.401 1351.79 186.73C1368.18 179.663 1382.25 168.564 1394.17 155.847C1408.03 141.314 1420.06 125.31 1432.5 109.632C1434.52 107.144 1436.18 104.31 1439 102.511V190.073C1428.42 202.044 1417.63 214.107 1404.31 223.462C1388.25 235.321 1368.91 242.509 1348.63 244.154C1307.47 247.533 1266.34 238.704 1227.78 225.697C1205.35 218.158 1183.56 209.056 1161.19 201.408C1144.29 195.777 1126.33 190.672 1108.23 193.143C1096.74 194.821 1086.18 200.105 1078.23 208.148C1065.95 219.629 1058.61 234.871 1053.45 250.258C1046.78 270.458 1042.91 291.35 1037.35 311.823C1029.68 340.635 1018.85 369.447 999.554 393.244C988.283 407.196 973.908 419.186 956.869 426.343C936.168 435.063 912.688 436.825 890.473 433.283C861.09 428.705 833.642 416.77 807.92 402.909C755.287 374.297 709.056 336.693 659.106 304.302C644.848 294.958 629.955 286.516 614.523 279.033C594.704 269.369 573.812 261.939 553.38 253.6C538.046 247.369 522.884 240.884 507.915 234.09C491.872 226.623 475.944 218.358 462.853 206.658C441.175 187.566 427.854 162.078 413.939 137.772C402.879 118.243 390.133 99.0959 372.556 84.1813C353.526 68.1282 329.396 58.5404 303.976 56.9319C280.765 55.3514 257.572 59.1118 234.974 64.2892C200.147 72.9019 166.369 84.9515 134.193 100.24C106.592 112.957 80.6976 128.634 54.5343 143.84C37.2838 153.595 19.7072 163.223 1 170.417V147.582C25.1123 140.315 47.2315 128.362 69.3122 116.844C95.5698 102.651 122.644 89.8602 150.409 78.5317C185.178 64.7071 220.944 53.0625 258.013 46.6861Z" fill="#CAE1F1"/>
<path opacity="0.2" d="M181.975 96.6751C212.939 84.4838 245.457 74.738 279.067 72.3831C303.091 70.5716 328.016 75.1184 348.493 87.4365C370.599 100.552 386.226 121.221 398.516 142.56C413.624 168.917 425.971 197.122 446.582 220.255C457.607 232.925 471.099 243.483 486.328 251.358C500.19 258.423 514.877 263.857 529.391 269.473C550.884 277.86 572.684 285.613 593.64 295.178C608.805 302.1 623.467 309.967 637.527 318.727C690.138 351.334 738.109 390.281 792.311 420.624C817.236 434.481 843.58 446.673 871.86 453.013C898.396 459.009 926.829 459.045 952.809 450.64C982.546 440.985 1006.3 419.482 1023.62 395.226C1042.02 369.721 1053.2 340.447 1063.28 311.3C1069.19 294.997 1074.79 278.204 1084.37 263.404C1092.04 251.648 1103.55 241.667 1117.51 237.373C1128.57 233.932 1140.51 234.547 1151.81 236.468C1165.83 239.187 1179.63 242.862 1193.09 247.463C1230.4 259.582 1267.42 273.06 1306.21 280.306C1326.51 283.929 1347.2 287.28 1367.94 285.885C1387.95 284.748 1407.17 278.133 1423.26 266.846C1428.92 263.097 1433.69 258.369 1439 254.166V285.324C1428.09 293.638 1416.18 300.975 1402.86 305.25C1382.54 312.224 1360.37 312.84 1339.17 309.833C1299.19 304.09 1260.56 292.207 1222.21 280.505C1203.04 274.853 1183.75 268.966 1163.81 266.267C1150.56 264.6 1136.28 264.455 1124.2 270.542C1111.68 277.338 1101.24 287.088 1093.9 298.837C1084.47 313.22 1077.78 328.962 1070.32 344.287C1057.3 371.876 1041.98 398.904 1020.76 421.692C1008 435.812 992.829 447.813 975.874 457.198C960.533 465.344 943.66 470.592 926.197 472.649C902.348 475.541 878.125 473.778 855.026 467.469C827.724 460.223 802.243 448.122 778.066 434.337C725.378 404.085 678.193 366.206 626.1 335.139C612.35 326.856 598.092 319.349 583.401 312.659C563.442 303.601 542.601 296.518 522.144 288.53C505.904 282.153 489.319 275.958 475.093 265.977C450.532 248.84 431.589 225.436 416.902 200.347C401.564 174.696 390.463 146.6 370.734 123.503C359.441 110.044 345.061 98.5772 328.074 92.0921C306.178 83.3426 281.579 83.3607 258.475 87.201C221.74 93.3239 186.864 107.037 154.289 123.902C125.337 138.81 99.1472 157.867 72.65 176.272C56.1995 187.648 39.7298 199.006 22.8 209.821C15.6293 214.313 8.53502 218.878 1 222.9V198.752C33.8818 182.34 64.0217 161.599 94.7754 141.962C122.158 124.137 151.372 108.965 181.975 96.6751Z" fill="#DBCAEB"/>
<path opacity="0.2" d="M240.045 107.057C258.656 102.397 278.13 99.4956 297.355 101.817C315.256 103.82 332.138 110.757 345.897 121.763C361.381 134.22 372.759 150.54 382.352 167.259C391.044 182.291 398.853 197.795 407.89 212.592C417.948 229.264 429.38 245.161 442.08 260.137C452.613 272.485 463.857 284.471 477.249 294.118C486.492 300.66 496.624 305.996 507.372 309.984C528.477 318.144 549.833 325.651 570.554 334.573C585.399 341.049 599.844 348.314 613.82 356.333C665.739 385.871 711.902 423.425 763.687 453.181C789.148 467.688 816.258 480.127 845.211 486.982C884.179 496.284 926.544 494.906 963.823 480.2C981.248 472.881 997.32 462.969 1011.43 450.842C1035.22 430.896 1054.31 406.579 1071.04 381.175C1081.82 365.073 1091.55 348.3 1103.48 332.905C1111.62 322.623 1120.75 312.723 1131.82 305.27C1141.86 298.488 1154.48 296.203 1166.61 296.367C1182.46 296.566 1198.07 299.667 1213.44 303.148C1251.7 312.07 1289.08 324.436 1327.89 331.182C1351.91 335.389 1377.22 335.552 1400.63 328.281C1414.38 323.995 1427.33 317.68 1439 309.567V323.711C1426.89 331.421 1413.71 337.522 1399.84 341.844C1375.86 349.098 1350.11 349.914 1325.32 346.468C1284.72 340.702 1245.94 326.903 1205.36 321.082C1189.13 318.852 1172.19 317.564 1156.23 321.916C1142.41 325.688 1131.11 334.609 1121.08 344.057C1107.15 357.403 1095.62 372.725 1083.86 387.757C1064.99 412.164 1045.29 436.263 1021.57 456.663C999.357 475.92 973.417 492.168 944.099 499.784C899.863 511.828 852.763 510.605 809.294 496.284C780.245 486.818 753.499 472.112 728.057 456.047C679.841 425.51 635.347 389.516 583.85 363.749C564.51 354.048 544.095 346.396 523.623 339.124C509.617 334.047 494.997 329.877 482.449 321.862C467.867 312.578 456.259 299.83 445.649 286.756C428.172 264.471 412.11 241.226 397.548 217.143C386.63 199.318 377.056 180.714 364.93 163.56C354.071 148.237 340.64 133.767 322.912 125.48C303.476 116.087 280.701 114.764 259.48 118.445C230.01 123.576 202.228 135.2 176.556 149.561C148.793 165.065 124.08 184.794 99.291 204.124C74.5018 223.453 50.4226 242.838 25.4223 261.533C17.2657 267.773 8.78075 273.619 0 279.049L0 252.684C1.70848 251.959 3.33491 251.072 4.85428 250.036C28.7225 234.17 51.4587 216.889 74.406 199.899C101.114 180.26 127.092 159.534 155.911 142.616C182.139 127.348 210.286 114.764 240.045 107.057Z" fill="#CAE1F1"/>
<path opacity="0.2" d="M242.705 144.927C258.054 140.558 274.247 137.676 290.287 139.616C306.309 141.461 321.371 147.822 333.513 157.87C348.862 170.36 360.066 186.475 370.657 202.554C389.287 231.558 407.111 261.25 425.511 290.399C434.931 305.028 444.562 319.675 456.611 332.527C465.076 341.999 475.529 349.708 487.309 355.168C496.499 359.228 506.495 361.476 516.088 364.54C532.897 369.74 549.325 375.983 565.263 383.229C582.533 391.44 599.091 400.926 614.782 411.598C643.887 430.94 671.113 452.639 699.566 472.796C720.037 487.298 741.238 501.202 764.799 510.864C787.589 519.949 811.845 525.312 836.536 526.725C877.915 529.435 919.429 523.749 958.291 510.048C976.552 502.98 993.688 493.555 1009.21 482.041C1035 463.425 1057.18 440.892 1078.45 417.798C1090.22 405.109 1101.69 392.075 1114.49 380.256C1125.48 370.159 1137.51 360.715 1151.3 354.298C1164.7 348.089 1179.44 344.893 1194.36 344.962C1218.4 344.709 1242.02 349.567 1265.35 354.244C1287.39 358.939 1309.76 362.872 1332.5 363.307C1355.52 363.887 1378.48 360.824 1400.44 354.244C1414.01 349.858 1426.97 343.904 1439 336.515V345.579C1423.37 354.93 1406.38 362.064 1388.56 366.751C1350.31 376.735 1310.33 379.373 1270.99 374.51C1248.12 371.591 1225.11 367.748 1201.92 369.199C1184.14 370.179 1166.69 374.093 1150.34 380.764C1135.59 386.764 1122.52 395.791 1110.42 405.635C1086.59 425.085 1066.04 447.781 1042.81 467.829C1017 490.344 988.567 511.136 955.624 523.408C919.573 536.532 881.373 543.711 843.039 547.445C820.79 549.755 798.389 550.5 776.022 549.675C760.074 549.014 744.404 545.502 729.841 539.324C708.525 529.988 691.91 513.8 676.12 497.867C654.152 475.733 631.301 454.234 605.88 435.581C579.307 415.877 549.626 399.326 516.99 390.263C504.673 386.637 491.799 384.607 480.095 379.386C465.303 372.915 453.235 362.074 443.335 349.965C424.455 326.527 411.217 299.68 396.252 273.994C385.872 255.866 374.859 238.174 362.925 220.971C353.581 207.756 343.586 194.759 331.153 183.955C318.145 172.426 301.108 164.613 283.188 164.015C262.371 163.29 241.976 169.326 223.231 177.411C197.176 188.849 174.172 205.436 152.242 222.729C132.212 237.956 112.968 254.271 93.8009 270.586C64.7723 295.185 35.149 320.073 0 336.66L0 310.466C1.68492 309.803 3.2924 308.977 4.79654 308.001C35.0723 289.094 61.8562 265.818 89.2156 243.467C112.719 224.252 135.953 204.675 160.55 186.71C185.146 168.746 212.736 153.61 242.705 144.927Z" fill="#DBCAEB"/>
</g>
</svg>
